<?xml version="1.0" encoding="UTF-8" standalone="no"?>
<!-- Created with Inkscape (http://www.inkscape.org/) -->

<svg
   xmlns:dc="http://purl.org/dc/elements/1.1/"
   xmlns:cc="http://creativecommons.org/ns#"
   xmlns:rdf="http://www.w3.org/1999/02/22-rdf-syntax-ns#"
   xmlns:svg="http://www.w3.org/2000/svg"
   xmlns="http://www.w3.org/2000/svg"
   xmlns:sodipodi="http://sodipodi.sourceforge.net/DTD/sodipodi-0.dtd"
   xmlns:inkscape="http://www.inkscape.org/namespaces/inkscape"
   id="svg6418"
   version="1.1"
   inkscape:version="0.91 r13725"
   width="8.7591562"
   height="6.5708013"
   viewBox="0 0 8.7591562 6.5708013"
   sodipodi:docname="USS_Patagonia_Bridge_LCARS_backup_min.svg"
   inkscape:export-filename="C:\Users\Rekkert\Desktop\Design\Blender\USS_Patagonia_Bridge\Textures\USS_Patagonia_Bridge_LCARS_red_alert.png"
   inkscape:export-xdpi="288"
   inkscape:export-ydpi="288">
  <metadata
     id="metadata6424">
    <rdf:RDF>
      <cc:Work
         rdf:about="">
        <dc:format>image/svg+xml</dc:format>
        <dc:type
           rdf:resource="http://purl.org/dc/dcmitype/StillImage" />
        <dc:title></dc:title>
      </cc:Work>
    </rdf:RDF>
  </metadata>
  <defs
     id="defs6422">
    <filter
       style="color-interpolation-filters:sRGB"
       id="filter3779"
       inkscape:label="Noise transparency"
       inkscape:menu="ABCs"
       inkscape:menu-tooltip="Basic noise transparency texture">
      <feTurbulence
         id="feTurbulence3781"
         type="fractalNoise"
         numOctaves="5"
         baseFrequency="0.0050000000000000001"
         result="result1" />
      <feComposite
         id="feComposite3783"
         in2="result1"
         operator="in"
         result="result2"
         in="SourceGraphic" />
      <feColorMatrix
         id="feColorMatrix3785"
         result="result3"
         values="1 0 0 0 0 0 1 0 0 0 0 0 1 0 0 0 0 0 3 -1 "
         in="result2" />
    </filter>
  </defs>
  <sodipodi:namedview
     pagecolor="#ffffff"
     bordercolor="#666666"
     borderopacity="1"
     objecttolerance="10"
     gridtolerance="10"
     guidetolerance="10"
     inkscape:pageopacity="0"
     inkscape:pageshadow="2"
     inkscape:window-width="1920"
     inkscape:window-height="1003"
     id="namedview6420"
     showgrid="false"
     inkscape:zoom="32"
     inkscape:cx="-8.8627824"
     inkscape:cy="1.6663462"
     inkscape:window-x="0"
     inkscape:window-y="25"
     inkscape:window-maximized="1"
     inkscape:current-layer="layer2"
     showguides="false"
     fit-margin-top="0"
     fit-margin-left="0"
     fit-margin-right="0"
     fit-margin-bottom="0" />
  <circle
     cy="-483.27841"
     cx="459.53247"
     id="circle25222"
     style="color:#000000;clip-rule:nonzero;display:inline;overflow:visible;visibility:visible;opacity:1;isolation:auto;mix-blend-mode:normal;color-interpolation:sRGB;color-interpolation-filters:linearRGB;solid-color:#000000;solid-opacity:1;fill:none;fill-opacity:1;fill-rule:evenodd;stroke:#00c864;stroke-width:0.30000004;stroke-linecap:round;stroke-linejoin:round;stroke-miterlimit:4;stroke-dasharray:none;stroke-dashoffset:0;stroke-opacity:1;color-rendering:auto;image-rendering:auto;shape-rendering:auto;text-rendering:auto;enable-background:accumulate"
     r="0" />
  <circle
     r="0"
     transform="matrix(-0.84234586,0.53893733,-0.53893733,-0.84234586,0,0)"
     cy="159.42827"
     cx="-647.54199"
     id="ellipse27543"
     style="color:#000000;clip-rule:nonzero;display:inline;overflow:visible;visibility:visible;opacity:1;isolation:auto;mix-blend-mode:normal;color-interpolation:sRGB;color-interpolation-filters:linearRGB;solid-color:#000000;solid-opacity:1;fill:none;fill-opacity:1;fill-rule:evenodd;stroke:#00c864;stroke-width:0.30000004;stroke-linecap:round;stroke-linejoin:round;stroke-miterlimit:4;stroke-dasharray:none;stroke-dashoffset:0;stroke-opacity:1;color-rendering:auto;image-rendering:auto;shape-rendering:auto;text-rendering:auto;enable-background:accumulate" />
  <g
     inkscape:groupmode="layer"
     id="layer2"
     inkscape:label="Image"
     style="display:inline"
     transform="translate(-680.25389,-1244.2858)">
    <flowRoot
       style="font-style:normal;font-variant:normal;font-weight:normal;font-stretch:normal;font-size:29.49126053px;line-height:125%;font-family:'Assassin$';-inkscape-font-specification:'Assassin$';text-align:start;letter-spacing:0px;word-spacing:0px;text-anchor:start;opacity:0.99500403;fill:#00c864;fill-opacity:1;stroke:none;stroke-width:1px;stroke-linecap:butt;stroke-linejoin:miter;stroke-opacity:1"
       id="flowRoot68918"
       xml:space="preserve"
       transform="translate(687.93281,1244.2778)"><flowRegion
         id="flowRegion68920"><rect
           style="text-align:start;text-anchor:start;fill:#00c864;fill-opacity:1"
           y="-0.16858049"
           x="-7.6913261"
           height="14.71098"
           width="23.82357"
           id="rect68922" /></flowRegion><flowPara
         style="font-style:italic;font-variant:normal;font-weight:normal;font-stretch:normal;font-size:0.69120145px;font-family:Jefferies;-inkscape-font-specification:'Jefferies Italic';text-align:start;text-anchor:start;fill:#00c864;fill-opacity:1"
         id="flowPara68924">81323924321987321832</flowPara><flowPara
         style="font-style:italic;font-variant:normal;font-weight:normal;font-stretch:normal;font-size:0.69120145px;font-family:Jefferies;-inkscape-font-specification:'Jefferies Italic';text-align:start;text-anchor:start;fill:#00c864;fill-opacity:1"
         id="flowPara68926">4845321957532</flowPara><flowPara
         style="font-style:italic;font-variant:normal;font-weight:normal;font-stretch:normal;font-size:0.69120145px;font-family:Jefferies;-inkscape-font-specification:'Jefferies Italic';text-align:start;text-anchor:start;fill:#00c864;fill-opacity:1"
         id="flowPara68928" /><flowPara
         style="font-style:italic;font-variant:normal;font-weight:normal;font-stretch:normal;font-size:0.69120145px;font-family:Jefferies;-inkscape-font-specification:'Jefferies Italic';text-align:start;text-anchor:start;fill:#00c864;fill-opacity:1"
         id="flowPara68930" /><flowPara
         style="font-style:italic;font-variant:normal;font-weight:normal;font-stretch:normal;font-size:0.69120145px;font-family:Jefferies;-inkscape-font-specification:'Jefferies Italic';text-align:start;text-anchor:start;fill:#00c864;fill-opacity:1"
         id="flowPara68932">7946281957462019485</flowPara><flowPara
         id="flowPara68934"
         style="font-style:italic;font-variant:normal;font-weight:normal;font-stretch:normal;font-size:0.69120145px;font-family:Jefferies;-inkscape-font-specification:'Jefferies Italic';text-align:start;text-anchor:start;fill:#00c864;fill-opacity:1">476234812584</flowPara><flowPara
         style="font-style:italic;font-variant:normal;font-weight:normal;font-stretch:normal;font-size:0.69120145px;font-family:Jefferies;-inkscape-font-specification:'Jefferies Italic';text-align:start;text-anchor:start;fill:#00c864;fill-opacity:1"
         id="flowPara68936">18723951238755139</flowPara><flowPara
         style="font-style:italic;font-variant:normal;font-weight:normal;font-stretch:normal;font-size:0.69120145px;font-family:Jefferies;-inkscape-font-specification:'Jefferies Italic';text-align:start;text-anchor:start;fill:#00c864;fill-opacity:1"
         id="flowPara68938">44872231658975321238</flowPara></flowRoot>  </g>
</svg>
